HLA-A01:01
HLA-A01:04
HLA-A02:01
HLA-A02:06
HLA-A02:89
HLA-A03:01
HLA-A03:21
HLA-A03:26
HLA-A11:01
HLA-A23:01
HLA-A24:02
HLA-A24:03
HLA-A25:01
HLA-A26:01
HLA-A29:01
HLA-A29:02
HLA-A30:01
HLA-A30:02
HLA-A31:01
HLA-A32:01
HLA-A33:01
HLA-A68:01
HLA-B07:02
HLA-B07:05
HLA-B08:01
HLA-B13:02
HLA-B14:02
HLA-B18:01
HLA-B27:05
HLA-B35:01
HLA-B35:02
HLA-B35:12
HLA-B35:40
HLA-B37:01
HLA-B38:01
HLA-B40:02
HLA-B400:102
HLA-B41:01
HLA-B44:02
HLA-B44:03
HLA-B450:101
HLA-B48:01
HLA-B49:01
HLA-B51:01
HLA-B51:08
HLA-B55:01
HLA-B56:01
HLA-B57:01
HLA-C01:02
HLA-C02:02
HLA-C03:03
HLA-C03:04
HLA-C04:01
HLA-C05:01
HLA-C06:02
HLA-C07:01
HLA-C07:02
HLA-C07:04
HLA-C08:02
HLA-C08:03
HLA-C12:03
HLA-C15:02
HLA-C15:04
HLA-C15:05
HLA-C16:01
HLA-C16:02
HLA-C17:01
